digraph finite_state_machine {
	rankdir=LR;
	size="4,2"
	node [shape = point]; s;
	node [shape = doublecircle]; q2;
	node [shape = circle];
	s -> q1;
	q1 -> q1 [ label = "0"];
	q1 -> q2 [ label = "1"];
	q2 -> q2 [ label = "1"];
	q2 -> q1 [ label = "0"];
}
