digraph finite_state_machine {
	rankdir=LR;
	size="4,2"
	node [shape = point]; st;
	node [shape = doublecircle]; q0;
	node [shape = circle];
	st -> q0;

	q0 -> q0 [ label = "0,<R>"];
	q1 -> q1 [ label = "0"];
	q2 -> q2 [ label = "0"];

	q0 -> q1 [ label = "1"];
	q1 -> q2 [ label = "1"];
	q2 -> q0 [ label = "1,<R>"];

	q0 -> q2 [ label = "2"];
	q1 -> q0 [ label = "2,<R>"];
	q2 -> q1 [ label = "2"];
}
